[
  {
    "name": "File Name",
    "date": "April 24th 2019",
    "type": "music",
    "size": "15 mb"
  },
  {
    "name": "File Name",
    "date": "April 24th 2019",
    "type": "archive",
    "size": "25 mb"
  },
  {
    "name": "File Name",
    "date": "April 24th 2019",
    "type": "image",
    "size": "12 mb"
  },
  {
    "name": "File Name",
    "date": "April 24th 2019",
    "type": "archive",
    "size": "13 mb"
  },
  {
    "name": "File Name",
    "date": "April 24th 2019",
    "type": "image",
    "size": "35 mb"
  },
  {
    "name": "File Name",
    "date": "April 24th 2019",
    "type": "image",
    "size": "32 mb"
  },
  {
    "name": "File Name",
    "date": "April 24th 2019",
    "type": "music",
    "size": "17 mb"
  },
  {
    "name": "File Name",
    "date": "April 24th 2019",
    "type": "archive",
    "size": "10 mb"
  },
  {
    "name": "File Name",
    "date": "April 24th 2019",
    "type": "file",
    "size": "7 mb"
  },
  {
    "name": "File Name",
    "date": "April 24th 2019",
    "type": "archive",
    "size": "25 mb"
  },
  {
    "name": "File Name",
    "date": "April 24th 2019",
    "type": "image",
    "size": "12 mb"
  },
  {
    "name": "File Name",
    "date": "April 24th 2019",
    "type": "archive",
    "size": "13 mb"
  },
  {
    "name": "File Name",
    "date": "April 24th 2019",
    "type": "music",
    "size": "17 mb"
  },
  {
    "name": "File Name",
    "date": "April 24th 2019",
    "type": "archive",
    "size": "10 mb"
  },
  {
    "name": "File Name",
    "date": "April 24th 2019",
    "type": "file",
    "size": "7 mb"
  },
  {
    "name": "File Name",
    "date": "April 24th 2019",
    "type": "music",
    "size": "25 mb"
  }
]
